2014-01-05 23:08:36.473 [info] <0.7.0> Application lager started on node cb_tutorial@sunflower
2014-01-05 23:08:36.579 [info] <0.7.0> Application crypto started on node cb_tutorial@sunflower
2014-01-05 23:08:36.614 [info] <0.7.0> Application mimetypes started on node cb_tutorial@sunflower
2014-01-05 23:08:36.767 [info] <0.82.0> Starting Boss in development mode....

2014-01-05 23:08:37.027 [info] <0.82.0> Starting master services on cb_tutorial@sunflower

2014-01-05 23:08:37.063 [info] <0.7.0> Application tinymq started on node cb_tutorial@sunflower
2014-01-05 23:08:37.135 [info] <0.82.0> SSL:[]

2014-01-05 23:08:37.154 [info] <0.82.0> Starting cowboy... on cb_tutorial@sunflower

2014-01-05 23:08:37.166 [info] <0.7.0> Application ranch started on node cb_tutorial@sunflower
2014-01-05 23:08:37.198 [info] <0.82.0> Starting http listener... on 8001 

2014-01-05 23:08:37.199 [info] <0.7.0> Application cowboy started on node cb_tutorial@sunflower
2014-01-05 23:08:37.284 [info] <0.7.0> Application boss started on node cb_tutorial@sunflower
2014-01-05 23:08:37.399 [info] <0.349.0> Loading routes from "/home/kidd/programmingStuff/cb_tutorial/priv/cb_tutorial.routes" ....
2014-01-05 23:08:37.423 [info] <0.82.0>@boss_load:load_all_modules:47 Loading application cb_tutorial
2014-01-05 23:08:37.773 [notice] <0.82.0>@boss_load:load_all_modules:65 Loading Modules [{test_modules,[]},{lib_modules,[]},{websocket_modules,[]},{mail_modules,[cb_tutorial_incoming_mail_controller,cb_tutorial_outgoing_mail_controller]},{controller_modules,[]},{model_modules,[]},{view_lib_tags_modules,[cb_tutorial_view_lib_tags]},{view_lib_helper_modules,[cb_tutorial_custom_filters,cb_tutorial_custom_tags]},{view_modules,[]}]
2014-01-05 23:09:03.014 [info] <0.349.0> Loading routes from "/home/kidd/programmingStuff/cb_tutorial/priv/cb_tutorial.routes" ....
2014-01-05 23:09:03.018 [error] <0.359.0> GET / [cb_tutorial] 404 0ms
2014-01-05 23:09:07.978 [info] <0.349.0> Loading routes from "/home/kidd/programmingStuff/cb_tutorial/priv/cb_tutorial.routes" ....
2014-01-05 23:09:07.987 [error] <0.359.0> GET /index [cb_tutorial] 404 0ms
2014-01-05 23:09:11.828 [info] <0.349.0> Loading routes from "/home/kidd/programmingStuff/cb_tutorial/priv/cb_tutorial.routes" ....
2014-01-05 23:09:11.831 [error] <0.359.0> GET /index.html [cb_tutorial] 404 0ms
2014-01-05 23:09:20.266 [info] <0.349.0> Loading routes from "/home/kidd/programmingStuff/cb_tutorial/priv/cb_tutorial.routes" ....
2014-01-05 23:09:20.274 [error] <0.364.0> GET / [cb_tutorial] 404 0ms
2014-01-05 23:14:19.834 [info] <0.349.0> Loading routes from "/home/kidd/programmingStuff/cb_tutorial/priv/cb_tutorial.routes" ....
2014-01-05 23:14:19.943 [info] <0.384.0>@boss_controller_adapter_pmod:action:91 Request Method 'GET'
2014-01-05 23:14:19.943 [info] <0.384.0>@boss_controller_adapter_pmod:action:92 FORMAT ERROR: "Tokens" [[]]
2014-01-05 23:14:19.973 [info] <0.376.0> GET /greeting/hello [cb_tutorial] 200 0ms
2014-01-05 23:20:36.774 [info] <0.349.0> Loading routes from "/home/kidd/programmingStuff/cb_tutorial/priv/cb_tutorial.routes" ....
2014-01-05 23:20:36.823 [info] <0.393.0>@boss_controller_adapter_pmod:action:91 Request Method 'GET'
2014-01-05 23:20:36.823 [info] <0.393.0>@boss_controller_adapter_pmod:action:92 FORMAT ERROR: "Tokens" [[]]
2014-01-05 23:20:36.857 [info] <0.385.0> GET /greeting/hello [cb_tutorial] 200 0ms
2014-01-05 23:22:11.561 [info] <0.349.0> Loading routes from "/home/kidd/programmingStuff/cb_tutorial/priv/cb_tutorial.routes" ....
2014-01-05 23:22:11.606 [info] <0.402.0>@boss_controller_adapter_pmod:action:91 Request Method 'GET'
2014-01-05 23:22:11.607 [info] <0.402.0>@boss_controller_adapter_pmod:action:92 FORMAT ERROR: "Tokens" [[]]
2014-01-05 23:22:11.730 [info] <0.394.0> GET /greeting/hello [cb_tutorial] 200 0ms
2014-01-05 23:23:14.742 [info] <0.349.0> Loading routes from "/home/kidd/programmingStuff/cb_tutorial/priv/cb_tutorial.routes" ....
2014-01-05 23:23:14.789 [info] <0.414.0>@boss_controller_adapter_pmod:action:91 Request Method 'GET'
2014-01-05 23:23:14.789 [info] <0.414.0>@boss_controller_adapter_pmod:action:92 FORMAT ERROR: "Tokens" [[]]
2014-01-05 23:23:14.817 [info] <0.406.0> GET /greeting/hello [cb_tutorial] 200 0ms
2014-01-05 23:26:44.058 [info] <0.349.0> Loading routes from "/home/kidd/programmingStuff/cb_tutorial/priv/cb_tutorial.routes" ....
2014-01-05 23:26:44.124 [info] <0.418.0> GET /greeting/hello [cb_tutorial] 200 0ms
2014-01-05 23:26:44.152 [error] <0.145.0> Supervisor ranch_conns_sup had child ranch_conns_sup started with {ranch_conns_sup,start_protocol,undefined} at <0.418.0> exit with reason no case clause matching closed in cowboy_protocol:execute/4 line 514 in context child_terminated
2014-01-05 23:26:44.161 [error] emulator Error in process <0.418.0> on node 'cb_tutorial@sunflower' with exit value: {{case_clause,closed},[{cowboy_protocol,execute,4,[{file,"src/cowboy_protocol.erl"},{line,514}]}]}


2014-01-05 23:26:44.168 [error] emulator Error in process <0.425.0> on node 'cb_tutorial@sunflower' with exit value: {{case_clause,closed},[{cowboy_protocol,execute,4,[{file,"src/cowboy_protocol.erl"},{line,514}]}]}


2014-01-05 23:26:44.178 [error] <0.145.0> Supervisor ranch_conns_sup had child ranch_conns_sup started with {ranch_conns_sup,start_protocol,undefined} at <0.425.0> exit with reason no case clause matching closed in cowboy_protocol:execute/4 line 514 in context child_terminated
2014-01-05 23:26:53.322 [info] <0.349.0> Loading routes from "/home/kidd/programmingStuff/cb_tutorial/priv/cb_tutorial.routes" ....
2014-01-05 23:26:53.368 [info] <0.435.0>@boss_controller_adapter_pmod:action:91 Request Method 'GET'
2014-01-05 23:26:53.370 [info] <0.435.0>@boss_controller_adapter_pmod:action:92 FORMAT ERROR: "Tokens" [[]]
2014-01-05 23:26:53.447 [info] <0.427.0> GET /greeting/hello [cb_tutorial] 200 0ms
2014-01-05 23:27:02.614 [info] <0.349.0> Loading routes from "/home/kidd/programmingStuff/cb_tutorial/priv/cb_tutorial.routes" ....
2014-01-05 23:27:02.680 [info] <0.447.0>@boss_controller_adapter_pmod:action:91 Request Method 'GET'
2014-01-05 23:27:02.680 [info] <0.447.0>@boss_controller_adapter_pmod:action:92 FORMAT ERROR: "Tokens" [[]]
2014-01-05 23:27:02.700 [info] <0.439.0> GET /greeting/hello [cb_tutorial] 200 0ms
2014-01-05 23:33:08.521 [info] <0.349.0> Loading routes from "/home/kidd/programmingStuff/cb_tutorial/priv/cb_tutorial.routes" ....
2014-01-05 23:33:08.569 [info] <0.458.0>@boss_controller_adapter_pmod:action:91 Request Method 'GET'
2014-01-05 23:33:08.569 [info] <0.458.0>@boss_controller_adapter_pmod:action:92 FORMAT ERROR: "Tokens" [[]]
2014-01-05 23:33:08.597 [info] <0.450.0> GET /greeting/hello [cb_tutorial] 200 0ms
2014-01-05 23:33:15.259 [info] <0.349.0> Loading routes from "/home/kidd/programmingStuff/cb_tutorial/priv/cb_tutorial.routes" ....
2014-01-05 23:33:15.310 [info] <0.469.0>@boss_controller_adapter_pmod:action:91 Request Method 'GET'
2014-01-05 23:33:15.310 [info] <0.469.0>@boss_controller_adapter_pmod:action:92 FORMAT ERROR: "Tokens" [[]]
2014-01-05 23:33:15.332 [info] <0.461.0> GET /greeting/hello [cb_tutorial] 200 0ms
2014-01-05 23:36:31.619 [info] <0.349.0> Loading routes from "/home/kidd/programmingStuff/cb_tutorial/priv/cb_tutorial.routes" ....
2014-01-05 23:36:31.662 [info] <0.474.0> GET /greeting/hello [cb_tutorial] 200 0ms
2014-01-05 23:36:31.697 [error] <0.145.0> Supervisor ranch_conns_sup had child ranch_conns_sup started with {ranch_conns_sup,start_protocol,undefined} at <0.474.0> exit with reason no case clause matching closed in cowboy_protocol:execute/4 line 514 in context child_terminated
2014-01-05 23:36:31.709 [error] emulator Error in process <0.474.0> on node 'cb_tutorial@sunflower' with exit value: {{case_clause,closed},[{cowboy_protocol,execute,4,[{file,"src/cowboy_protocol.erl"},{line,514}]}]}


2014-01-05 23:36:31.721 [error] emulator Error in process <0.481.0> on node 'cb_tutorial@sunflower' with exit value: {{case_clause,closed},[{cowboy_protocol,execute,4,[{file,"src/cowboy_protocol.erl"},{line,514}]}]}


2014-01-05 23:36:31.733 [error] <0.145.0> Supervisor ranch_conns_sup had child ranch_conns_sup started with {ranch_conns_sup,start_protocol,undefined} at <0.481.0> exit with reason no case clause matching closed in cowboy_protocol:execute/4 line 514 in context child_terminated
2014-01-05 23:36:41.463 [info] <0.349.0> Loading routes from "/home/kidd/programmingStuff/cb_tutorial/priv/cb_tutorial.routes" ....
2014-01-05 23:36:41.513 [info] <0.483.0> GET /greeting/hello [cb_tutorial] 200 0ms
2014-01-05 23:36:41.561 [error] emulator Error in process <0.483.0> on node 'cb_tutorial@sunflower' with exit value: {{case_clause,closed},[{cowboy_protocol,execute,4,[{file,"src/cowboy_protocol.erl"},{line,514}]}]}


2014-01-05 23:36:41.569 [error] <0.145.0> Supervisor ranch_conns_sup had child ranch_conns_sup started with {ranch_conns_sup,start_protocol,undefined} at <0.483.0> exit with reason no case clause matching closed in cowboy_protocol:execute/4 line 514 in context child_terminated
2014-01-05 23:36:41.577 [error] emulator Error in process <0.490.0> on node 'cb_tutorial@sunflower' with exit value: {{case_clause,closed},[{cowboy_protocol,execute,4,[{file,"src/cowboy_protocol.erl"},{line,514}]}]}


2014-01-05 23:36:41.588 [error] <0.145.0> Supervisor ranch_conns_sup had child ranch_conns_sup started with {ranch_conns_sup,start_protocol,undefined} at <0.490.0> exit with reason no case clause matching closed in cowboy_protocol:execute/4 line 514 in context child_terminated
2014-01-05 23:36:42.533 [info] <0.349.0> Loading routes from "/home/kidd/programmingStuff/cb_tutorial/priv/cb_tutorial.routes" ....
2014-01-05 23:36:42.608 [info] <0.492.0> GET /greeting/hello [cb_tutorial] 200 0ms
2014-01-05 23:36:42.640 [error] <0.145.0> Supervisor ranch_conns_sup had child ranch_conns_sup started with {ranch_conns_sup,start_protocol,undefined} at <0.492.0> exit with reason no case clause matching closed in cowboy_protocol:execute/4 line 514 in context child_terminated
2014-01-05 23:36:42.657 [error] emulator Error in process <0.492.0> on node 'cb_tutorial@sunflower' with exit value: {{case_clause,closed},[{cowboy_protocol,execute,4,[{file,"src/cowboy_protocol.erl"},{line,514}]}]}


2014-01-05 23:36:42.673 [error] emulator Error in process <0.499.0> on node 'cb_tutorial@sunflower' with exit value: {{case_clause,closed},[{cowboy_protocol,execute,4,[{file,"src/cowboy_protocol.erl"},{line,514}]}]}


2014-01-05 23:36:42.686 [error] <0.145.0> Supervisor ranch_conns_sup had child ranch_conns_sup started with {ranch_conns_sup,start_protocol,undefined} at <0.499.0> exit with reason no case clause matching closed in cowboy_protocol:execute/4 line 514 in context child_terminated
2014-01-05 23:37:03.785 [info] <0.349.0> Loading routes from "/home/kidd/programmingStuff/cb_tutorial/priv/cb_tutorial.routes" ....
2014-01-05 23:37:03.907 [info] <0.510.0>@boss_controller_adapter_pmod:action:91 Request Method 'GET'
2014-01-05 23:37:03.907 [info] <0.510.0>@boss_controller_adapter_pmod:action:92 FORMAT ERROR: "Tokens" [[]]
2014-01-05 23:37:03.937 [info] <0.501.0> GET /greeting/hello [cb_tutorial] 200 0ms
2014-01-05 23:40:26.573 [info] <0.516.0> GET /doc/greeting/ [cb_tutorial] 200 0ms
2014-01-05 23:40:26.601 [error] <0.145.0> Supervisor ranch_conns_sup had child ranch_conns_sup started with {ranch_conns_sup,start_protocol,undefined} at <0.516.0> exit with reason no case clause matching closed in cowboy_protocol:execute/4 line 514 in context child_terminated
2014-01-05 23:40:26.617 [error] emulator Error in process <0.516.0> on node 'cb_tutorial@sunflower' with exit value: {{case_clause,closed},[{cowboy_protocol,execute,4,[{file,"src/cowboy_protocol.erl"},{line,514}]}]}


2014-01-05 23:40:26.633 [error] emulator Error in process <0.520.0> on node 'cb_tutorial@sunflower' with exit value: {{case_clause,closed},[{cowboy_protocol,execute,4,[{file,"src/cowboy_protocol.erl"},{line,514}]}]}


2014-01-05 23:40:26.645 [error] <0.145.0> Supervisor ranch_conns_sup had child ranch_conns_sup started with {ranch_conns_sup,start_protocol,undefined} at <0.520.0> exit with reason no case clause matching closed in cowboy_protocol:execute/4 line 514 in context child_terminated
2014-01-05 23:40:32.567 [info] <0.522.0> GET /doc/cb_tutorial_greeting_controller [cb_tutorial] 200 0ms
2014-01-05 23:40:32.616 [error] <0.145.0> Supervisor ranch_conns_sup had child ranch_conns_sup started with {ranch_conns_sup,start_protocol,undefined} at <0.522.0> exit with reason no case clause matching closed in cowboy_protocol:execute/4 line 514 in context child_terminated
2014-01-05 23:40:32.632 [error] emulator Error in process <0.522.0> on node 'cb_tutorial@sunflower' with exit value: {{case_clause,closed},[{cowboy_protocol,execute,4,[{file,"src/cowboy_protocol.erl"},{line,514}]}]}


2014-01-05 23:40:32.653 [error] emulator Error in process <0.529.0> on node 'cb_tutorial@sunflower' with exit value: {{case_clause,closed},[{cowboy_protocol,execute,4,[{file,"src/cowboy_protocol.erl"},{line,514}]}]}


2014-01-05 23:40:32.662 [error] <0.145.0> Supervisor ranch_conns_sup had child ranch_conns_sup started with {ranch_conns_sup,start_protocol,undefined} at <0.529.0> exit with reason no case clause matching closed in cowboy_protocol:execute/4 line 514 in context child_terminated
2014-01-05 23:40:32.670 [error] emulator Error in process <0.531.0> on node 'cb_tutorial@sunflower' with exit value: {{case_clause,closed},[{cowboy_protocol,execute,4,[{file,"src/cowboy_protocol.erl"},{line,514}]}]}


2014-01-05 23:40:32.676 [error] <0.145.0> Supervisor ranch_conns_sup had child ranch_conns_sup started with {ranch_conns_sup,start_protocol,undefined} at <0.531.0> exit with reason no case clause matching closed in cowboy_protocol:execute/4 line 514 in context child_terminated
2014-01-05 23:40:39.981 [info] <0.533.0> GET /doc/greeting [cb_tutorial] 200 0ms
2014-01-05 23:40:40.064 [error] emulator Error in process <0.533.0> on node 'cb_tutorial@sunflower' with exit value: {{case_clause,closed},[{cowboy_protocol,execute,4,[{file,"src/cowboy_protocol.erl"},{line,514}]}]}


2014-01-05 23:40:40.078 [error] <0.145.0> Supervisor ranch_conns_sup had child ranch_conns_sup started with {ranch_conns_sup,start_protocol,undefined} at <0.533.0> exit with reason no case clause matching closed in cowboy_protocol:execute/4 line 514 in context child_terminated
2014-01-05 23:40:40.090 [error] emulator Error in process <0.538.0> on node 'cb_tutorial@sunflower' with exit value: {{case_clause,closed},[{cowboy_protocol,execute,4,[{file,"src/cowboy_protocol.erl"},{line,514}]}]}


2014-01-05 23:40:40.105 [error] <0.145.0> Supervisor ranch_conns_sup had child ranch_conns_sup started with {ranch_conns_sup,start_protocol,undefined} at <0.538.0> exit with reason no case clause matching closed in cowboy_protocol:execute/4 line 514 in context child_terminated
2014-01-05 23:40:40.122 [error] emulator Error in process <0.540.0> on node 'cb_tutorial@sunflower' with exit value: {{case_clause,closed},[{cowboy_protocol,execute,4,[{file,"src/cowboy_protocol.erl"},{line,514}]}]}


2014-01-05 23:40:40.133 [error] <0.145.0> Supervisor ranch_conns_sup had child ranch_conns_sup started with {ranch_conns_sup,start_protocol,undefined} at <0.540.0> exit with reason no case clause matching closed in cowboy_protocol:execute/4 line 514 in context child_terminated
